…
[1] 46
[1] 47
[1] 48
[1] 49
[1] 50
[1] 51
[1] 52
[1] 53
[1] 54
[1] 55
[1] 56
[1] 57
`summarise()` has grouped output by 'Altersgruppe'. You can override using the `.groups` argument.
[[1]]
# A tibble: 1,855 × 37
# Groups:   date, age60 [1,855]
   date       age60 reported nowcast_est nowcast_0.025 nowcast_0.1 nowcast_0.25
   <date>     <fct>    <dbl>       <dbl>         <dbl>       <dbl>        <dbl>
 1 2021-11-30 00-04       13        39.6            30        33             36
 2 2021-11-30 05-14        5        13.2             8        10             11
 3 2021-11-30 15-34       35       123.            104       110            116
 4 2021-11-30 35-59       80       328.            293       305            316
 5 2021-11-30 60-79      118       455.            413       427            441
 6 2021-11-30 80+        111       404.            366       379            391
 7 2021-11-30 alle       362      1363            1277      1307           1333
 8 2021-11-29 00-04        7        19.2            13        15             17
 9 2021-11-29 05-14        5        12.9             8         9.9           11
10 2021-11-29 15-34       20        70.1            56        61             65
# … with 1,845 more rows, and 30 more variables: nowcast_0.5 <dbl>,
#   nowcast_0.75 <dbl>, nowcast_0.8 <dbl>, nowcast_0.85 <dbl>,
#   nowcast_0.9 <dbl>, nowcast_0.95 <dbl>, nowcast_0.975 <dbl>,
#   reported7 <dbl>, nowcast7_est <dbl>, nowcast7_0.025 <dbl>,
#   nowcast7_0.1 <dbl>, nowcast7_0.25 <dbl>, nowcast7_0.5 <dbl>,
#   nowcast7_0.75 <dbl>, nowcast7_0.8 <dbl>, nowcast7_0.85 <dbl>,
#   nowcast7_0.9 <dbl>, nowcast7_0.95 <dbl>, nowcast7_0.975 <dbl>, …

[[2]]
# A tibble: 717 × 37
# Groups:   date, age60 [717]
   date       age60 reported nowcast_est nowcast_0.025 nowcast_0.1 nowcast_0.25
   <date>     <fct>    <dbl>       <dbl>         <dbl>       <dbl>        <dbl>
 1 2021-11-30 0-60         9        40.1            22          27           32
 2 2021-11-30 60+         13        52.5            31          37           43
 3 2021-11-30 alle        22        92.5            56          66           78
 4 2021-11-29 0-60         1         4.9             1           2            3
 5 2021-11-29 60+          1         4.5             1           2            3
 6 2021-11-29 alle         2         9.4             3           5            7
 7 2021-11-28 0-60         1         5.3             1           2            4
 8 2021-11-28 60+          2         9.7             4           5            7
 9 2021-11-28 alle         3        15               7           9           12
10 2021-11-27 0-60         3         9.7             5           6            8
# … with 707 more rows, and 30 more variables: nowcast_0.5 <dbl>,
#   nowcast_0.75 <dbl>, nowcast_0.8 <dbl>, nowcast_0.85 <dbl>,
#   nowcast_0.9 <dbl>, nowcast_0.95 <dbl>, nowcast_0.975 <dbl>,
#   reported7 <dbl>, nowcast7_est <dbl>, nowcast7_0.025 <dbl>,
#   nowcast7_0.1 <dbl>, nowcast7_0.25 <dbl>, nowcast7_0.5 <dbl>,
#   nowcast7_0.75 <dbl>, nowcast7_0.8 <dbl>, nowcast7_0.85 <dbl>,
#   nowcast7_0.9 <dbl>, nowcast7_0.95 <dbl>, nowcast7_0.975 <dbl>, …

[[3]]
# A tibble: 717 × 37
# Groups:   date, age60 [717]
   date       age60 reported nowcast_est nowcast_0.025 nowcast_0.1 nowcast_0.25
   <date>     <fct>    <dbl>       <dbl>         <dbl>       <dbl>        <dbl>
 1 2021-11-30 0-60        18        99.3            60          71           84
 2 2021-11-30 60+         14        82.7            49          59           69
 3 2021-11-30 alle        32       182             114         134          155
 4 2021-11-29 0-60         4        26.8            10          14           19
 5 2021-11-29 60+          0         0               0           0            0
 6 2021-11-29 alle         4        26.8            10          14           19
 7 2021-11-28 0-60         2        12.9             4           6            9
 8 2021-11-28 60+          0         0               0           0            0
 9 2021-11-28 alle         2        12.9             4           6            9
10 2021-11-27 0-60        12        37.5            24          28           33
# … with 707 more rows, and 30 more variables: nowcast_0.5 <dbl>,
#   nowcast_0.75 <dbl>, nowcast_0.8 <dbl>, nowcast_0.85 <dbl>,
#   nowcast_0.9 <dbl>, nowcast_0.95 <dbl>, nowcast_0.975 <dbl>,
#   reported7 <dbl>, nowcast7_est <dbl>, nowcast7_0.025 <dbl>,
#   nowcast7_0.1 <dbl>, nowcast7_0.25 <dbl>, nowcast7_0.5 <dbl>,
#   nowcast7_0.75 <dbl>, nowcast7_0.8 <dbl>, nowcast7_0.85 <dbl>,
#   nowcast7_0.9 <dbl>, nowcast7_0.95 <dbl>, nowcast7_0.975 <dbl>, …

[[4]]
# A tibble: 717 × 37
# Groups:   date, age60 [717]
   date       age60 reported nowcast_est nowcast_0.025 nowcast_0.1 nowcast_0.25
   <date>     <fct>    <dbl>       <dbl>         <dbl>       <dbl>        <dbl>
 1 2021-11-30 0-60        17        61.6            47          52           56
 2 2021-11-30 60+         29       105.             85          91           98
 3 2021-11-30 alle        46       167.            139         148          156
 4 2021-11-29 0-60        14        45.3            34          37           41
 5 2021-11-29 60+         18        52.5            40          44           48
 6 2021-11-29 alle        32        97.8            79          85           91
 7 2021-11-28 0-60        15        59.5            45          50           54
 8 2021-11-28 60+         37       120.             98         106          112
 9 2021-11-28 alle        52       179.            151         160          169
10 2021-11-27 0-60        33        83.2            69          73           78
# … with 707 more rows, and 30 more variables: nowcast_0.5 <dbl>,
#   nowcast_0.75 <dbl>, nowcast_0.8 <dbl>, nowcast_0.85 <dbl>,
#   nowcast_0.9 <dbl>, nowcast_0.95 <dbl>, nowcast_0.975 <dbl>,
#   reported7 <dbl>, nowcast7_est <dbl>, nowcast7_0.025 <dbl>,
#   nowcast7_0.1 <dbl>, nowcast7_0.25 <dbl>, nowcast7_0.5 <dbl>,
#   nowcast7_0.75 <dbl>, nowcast7_0.8 <dbl>, nowcast7_0.85 <dbl>,
#   nowcast7_0.9 <dbl>, nowcast7_0.95 <dbl>, nowcast7_0.975 <dbl>, …

[[5]]
# A tibble: 717 × 37
# Groups:   date, age60 [717]
   date       age60 reported nowcast_est nowcast_0.025 nowcast_0.1 nowcast_0.25
   <date>     <fct>    <dbl>       <dbl>         <dbl>       <dbl>        <dbl>
 1 2021-11-30 0-60        26        94.5            76          82           88
 2 2021-11-30 60+         53       183.            155         164          173
 3 2021-11-30 alle        79       278.            240         252          264
 4 2021-11-29 0-60        13        59.1            44          49           54
 5 2021-11-29 60+         47       181             151         161          170
 6 2021-11-29 alle        60       240.            204         215          227
 7 2021-11-28 0-60        27       112.             90          97          104
 8 2021-11-28 60+         53       176.            149         159          167
 9 2021-11-28 alle        80       288             248         262          274
10 2021-11-27 0-60        43       122.            103         109          115
# … with 707 more rows, and 30 more variables: nowcast_0.5 <dbl>,
#   nowcast_0.75 <dbl>, nowcast_0.8 <dbl>, nowcast_0.85 <dbl>,
#   nowcast_0.9 <dbl>, nowcast_0.95 <dbl>, nowcast_0.975 <dbl>,
#   reported7 <dbl>, nowcast7_est <dbl>, nowcast7_0.025 <dbl>,
#   nowcast7_0.1 <dbl>, nowcast7_0.25 <dbl>, nowcast7_0.5 <dbl>,
#   nowcast7_0.75 <dbl>, nowcast7_0.8 <dbl>, nowcast7_0.85 <dbl>,
#   nowcast7_0.9 <dbl>, nowcast7_0.95 <dbl>, nowcast7_0.975 <dbl>, …

[[6]]
# A tibble: 717 × 37
# Groups:   date, age60 [717]
   date       age60 reported nowcast_est nowcast_0.025 nowcast_0.1 nowcast_0.25
   <date>     <fct>    <dbl>       <dbl>         <dbl>       <dbl>        <dbl>
 1 2021-11-30 0-60         3         4.3             3           3            4
 2 2021-11-30 60+          1         1.5             1           1            1
 3 2021-11-30 alle         4         5.8             4           4            5
 4 2021-11-29 0-60         4         8.5             4           6            7
 5 2021-11-29 60+          2         4.8             2           3            4
 6 2021-11-29 alle         6        13.3             8           9           11
 7 2021-11-28 0-60         0         0               0           0            0
 8 2021-11-28 60+          2         4.2             2           2            3
 9 2021-11-28 alle         2         4.2             2           2            3
10 2021-11-27 0-60         8         9.9             8           8            9
# … with 707 more rows, and 30 more variables: nowcast_0.5 <dbl>,
#   nowcast_0.75 <dbl>, nowcast_0.8 <dbl>, nowcast_0.85 <dbl>,
#   nowcast_0.9 <dbl>, nowcast_0.95 <dbl>, nowcast_0.975 <dbl>,
#   reported7 <dbl>, nowcast7_est <dbl>, nowcast7_0.025 <dbl>,
#   nowcast7_0.1 <dbl>, nowcast7_0.25 <dbl>, nowcast7_0.5 <dbl>,
#   nowcast7_0.75 <dbl>, nowcast7_0.8 <dbl>, nowcast7_0.85 <dbl>,
#   nowcast7_0.9 <dbl>, nowcast7_0.95 <dbl>, nowcast7_0.975 <dbl>, …

[[7]]
# A tibble: 717 × 37
# Groups:   date, age60 [717]
   date       age60 reported nowcast_est nowcast_0.025 nowcast_0.1 nowcast_0.25
   <date>     <fct>    <dbl>       <dbl>         <dbl>       <dbl>        <dbl>
 1 2021-11-30 0-60         4        12.3             7           9           10
 2 2021-11-30 60+         12        34.3            25          28           31
 3 2021-11-30 alle        16        46.7            34          38           42
 4 2021-11-29 0-60         3        11.3             6           7            9
 5 2021-11-29 60+          8        27.1            18          21           24
 6 2021-11-29 alle        11        38.5            26          30           34
 7 2021-11-28 0-60         4        16.7            10          12           14
 8 2021-11-28 60+          9        32.5            22          25           29
 9 2021-11-28 alle        13        49.2            35          40           44
10 2021-11-27 0-60        16        36.9            27          31           34
# … with 707 more rows, and 30 more variables: nowcast_0.5 <dbl>,
#   nowcast_0.75 <dbl>, nowcast_0.8 <dbl>, nowcast_0.85 <dbl>,
#   nowcast_0.9 <dbl>, nowcast_0.95 <dbl>, nowcast_0.975 <dbl>,
#   reported7 <dbl>, nowcast7_est <dbl>, nowcast7_0.025 <dbl>,
#   nowcast7_0.1 <dbl>, nowcast7_0.25 <dbl>, nowcast7_0.5 <dbl>,
#   nowcast7_0.75 <dbl>, nowcast7_0.8 <dbl>, nowcast7_0.85 <dbl>,
#   nowcast7_0.9 <dbl>, nowcast7_0.95 <dbl>, nowcast7_0.975 <dbl>, …

[[8]]
# A tibble: 717 × 37
# Groups:   date, age60 [717]
   date       age60 reported nowcast_est nowcast_0.025 nowcast_0.1 nowcast_0.25
   <date>     <fct>    <dbl>       <dbl>         <dbl>       <dbl>        <dbl>
 1 2021-11-30 0-60         0         0               0           0            0
 2 2021-11-30 60+          0         0               0           0            0
 3 2021-11-30 alle         0         0               0           0            0
 4 2021-11-29 0-60         1         7.5             2           4            5
 5 2021-11-29 60+          0         0               0           0            0
 6 2021-11-29 alle         1         7.5             2           4            5
 7 2021-11-28 0-60         1         5.8             2           3            4
 8 2021-11-28 60+          0         0               0           0            0
 9 2021-11-28 alle         1         5.8             2           3            4
10 2021-11-27 0-60         3         9.6             5           6            8
# … with 707 more rows, and 30 more variables: nowcast_0.5 <dbl>,
#   nowcast_0.75 <dbl>, nowcast_0.8 <dbl>, nowcast_0.85 <dbl>,
#   nowcast_0.9 <dbl>, nowcast_0.95 <dbl>, nowcast_0.975 <dbl>,
#   reported7 <dbl>, nowcast7_est <dbl>, nowcast7_0.025 <dbl>,
#   nowcast7_0.1 <dbl>, nowcast7_0.25 <dbl>, nowcast7_0.5 <dbl>,
#   nowcast7_0.75 <dbl>, nowcast7_0.8 <dbl>, nowcast7_0.85 <dbl>,
#   nowcast7_0.9 <dbl>, nowcast7_0.95 <dbl>, nowcast7_0.975 <dbl>, …

[[9]]
# A tibble: 717 × 37
# Groups:   date, age60 [717]
   date       age60 reported nowcast_est nowcast_0.025 nowcast_0.1 nowcast_0.25
   <date>     <fct>    <dbl>       <dbl>         <dbl>       <dbl>        <dbl>
 1 2021-11-30 0-60         4        41.8            21          27           34
 2 2021-11-30 60+          5        35.2            19          24           29
 3 2021-11-30 alle         9        77              44          53           64
 4 2021-11-29 0-60         5        26.8            15          18           22
 5 2021-11-29 60+         13        47.1            30          35           41
 6 2021-11-29 alle        18        73.9            48          56           64
 7 2021-11-28 0-60         3        20              10          13           16
 8 2021-11-28 60+         12        46.9            30          35           41
 9 2021-11-28 alle        15        66.9            43          51           59
10 2021-11-27 0-60         6        39.5            23          29           34
# … with 707 more rows, and 30 more variables: nowcast_0.5 <dbl>,
#   nowcast_0.75 <dbl>, nowcast_0.8 <dbl>, nowcast_0.85 <dbl>,
#   nowcast_0.9 <dbl>, nowcast_0.95 <dbl>, nowcast_0.975 <dbl>,
#   reported7 <dbl>, nowcast7_est <dbl>, nowcast7_0.025 <dbl>,
#   nowcast7_0.1 <dbl>, nowcast7_0.25 <dbl>, nowcast7_0.5 <dbl>,
#   nowcast7_0.75 <dbl>, nowcast7_0.8 <dbl>, nowcast7_0.85 <dbl>,
#   nowcast7_0.9 <dbl>, nowcast7_0.95 <dbl>, nowcast7_0.975 <dbl>, …

[[10]]
# A tibble: 717 × 37
# Groups:   date, age60 [717]
   date       age60 reported nowcast_est nowcast_0.025 nowcast_0.1 nowcast_0.25
   <date>     <fct>    <dbl>       <dbl>         <dbl>       <dbl>        <dbl>
 1 2021-11-30 0-60         4        11.7             6           8           10
 2 2021-11-30 60+         10        28              19          22           25
 3 2021-11-30 alle        14        39.7            28          32           35
 4 2021-11-29 0-60         2         6.8             3           4            5
 5 2021-11-29 60+          3         9.2             5           6            7
 6 2021-11-29 alle         5        16               9          11           13
 7 2021-11-28 0-60         4        10.2             6           7            8
 8 2021-11-28 60+          7        16              10          12           14
 9 2021-11-28 alle        11        26.3            18          21           23
10 2021-11-27 0-60         6        15.3            10          11           13
# … with 707 more rows, and 30 more variables: nowcast_0.5 <dbl>,
#   nowcast_0.75 <dbl>, nowcast_0.8 <dbl>, nowcast_0.85 <dbl>,
#   nowcast_0.9 <dbl>, nowcast_0.95 <dbl>, nowcast_0.975 <dbl>,
#   reported7 <dbl>, nowcast7_est <dbl>, nowcast7_0.025 <dbl>,
#   nowcast7_0.1 <dbl>, nowcast7_0.25 <dbl>, nowcast7_0.5 <dbl>,
#   nowcast7_0.75 <dbl>, nowcast7_0.8 <dbl>, nowcast7_0.85 <dbl>,
#   nowcast7_0.9 <dbl>, nowcast7_0.95 <dbl>, nowcast7_0.975 <dbl>, …

[[11]]
# A tibble: 717 × 37
# Groups:   date, age60 [717]
   date       age60 reported nowcast_est nowcast_0.025 nowcast_0.1 nowcast_0.25
   <date>     <fct>    <dbl>       <dbl>         <dbl>       <dbl>        <dbl>
 1 2021-11-30 0-60        13        59              45          50           54
 2 2021-11-30 60+         25       124.            101         108          115
 3 2021-11-30 alle        38       182.            153         163          172
 4 2021-11-29 0-60        13        55.8            42          46           51
 5 2021-11-29 60+         25       104.             84          91           97
 6 2021-11-29 alle        38       160.            132         142          150
 7 2021-11-28 0-60        21        76.7            61          66           71
 8 2021-11-28 60+         48       160.            136         144          151
 9 2021-11-28 alle        69       237.            204         215          225
10 2021-11-27 0-60        45       124.            106         112          118
# … with 707 more rows, and 30 more variables: nowcast_0.5 <dbl>,
#   nowcast_0.75 <dbl>, nowcast_0.8 <dbl>, nowcast_0.85 <dbl>,
#   nowcast_0.9 <dbl>, nowcast_0.95 <dbl>, nowcast_0.975 <dbl>,
#   reported7 <dbl>, nowcast7_est <dbl>, nowcast7_0.025 <dbl>,
#   nowcast7_0.1 <dbl>, nowcast7_0.25 <dbl>, nowcast7_0.5 <dbl>,
#   nowcast7_0.75 <dbl>, nowcast7_0.8 <dbl>, nowcast7_0.85 <dbl>,
#   nowcast7_0.9 <dbl>, nowcast7_0.95 <dbl>, nowcast7_0.975 <dbl>, …

[[12]]
# A tibble: 717 × 37
# Groups:   date, age60 [717]
   date       age60 reported nowcast_est nowcast_0.025 nowcast_0.1 nowcast_0.25
   <date>     <fct>    <dbl>       <dbl>         <dbl>       <dbl>        <dbl>
 1 2021-11-30 0-60         3        18.5            10        12.9           15
 2 2021-11-30 60+          5        29.9            18        22             25
 3 2021-11-30 alle         8        48.4            31        37             42
 4 2021-11-29 0-60         2        15.5             7         9             12
 5 2021-11-29 60+          3        21.3            11        14             17
 6 2021-11-29 alle         5        36.8            21        25             30
 7 2021-11-28 0-60         1         6.4             2         3              5
 8 2021-11-28 60+          7        40.1            24        29             34
 9 2021-11-28 alle         8        46.5            29        34             40
10 2021-11-27 0-60         8        27.5            18        21             24
# … with 707 more rows, and 30 more variables: nowcast_0.5 <dbl>,
#   nowcast_0.75 <dbl>, nowcast_0.8 <dbl>, nowcast_0.85 <dbl>,
#   nowcast_0.9 <dbl>, nowcast_0.95 <dbl>, nowcast_0.975 <dbl>,
#   reported7 <dbl>, nowcast7_est <dbl>, nowcast7_0.025 <dbl>,
#   nowcast7_0.1 <dbl>, nowcast7_0.25 <dbl>, nowcast7_0.5 <dbl>,
#   nowcast7_0.75 <dbl>, nowcast7_0.8 <dbl>, nowcast7_0.85 <dbl>,
#   nowcast7_0.9 <dbl>, nowcast7_0.95 <dbl>, nowcast7_0.975 <dbl>, …

[[13]]
# A tibble: 717 × 37
# Groups:   date, age60 [717]
   date       age60 reported nowcast_est nowcast_0.025 nowcast_0.1 nowcast_0.25
   <date>     <fct>    <dbl>       <dbl>         <dbl>       <dbl>        <dbl>
 1 2021-11-30 0-60         7        14.3             9          10           12
 2 2021-11-30 60+         10        17              12          14           15
 3 2021-11-30 alle        17        31.3            22          25           29
 4 2021-11-29 0-60         1         2.7             1           1            2
 5 2021-11-29 60+          0         0               0           0            0
 6 2021-11-29 alle         1         2.7             1           1            2
 7 2021-11-28 0-60         1         2.4             1           1            2
 8 2021-11-28 60+         10        20.1            13          16           18
 9 2021-11-28 alle        11        22.5            14          17           20
10 2021-11-27 0-60         5         9.3             6           7            8
# … with 707 more rows, and 30 more variables: nowcast_0.5 <dbl>,
#   nowcast_0.75 <dbl>, nowcast_0.8 <dbl>, nowcast_0.85 <dbl>,
#   nowcast_0.9 <dbl>, nowcast_0.95 <dbl>, nowcast_0.975 <dbl>,
#   reported7 <dbl>, nowcast7_est <dbl>, nowcast7_0.025 <dbl>,
#   nowcast7_0.1 <dbl>, nowcast7_0.25 <dbl>, nowcast7_0.5 <dbl>,
#   nowcast7_0.75 <dbl>, nowcast7_0.8 <dbl>, nowcast7_0.85 <dbl>,
#   nowcast7_0.9 <dbl>, nowcast7_0.95 <dbl>, nowcast7_0.975 <dbl>, …
…
